{
    "person": [
      {
        "id": 1,
        "name": "Le Guin",
        "firstname": "Ursula K.",
        "age": -1
      },
      {
        "id": 2,
        "name": "Friot",
        "firstname": "Bernard",
        "age": 73
      },
      {
        "id": 3,
        "name": "Bookchin",
        "firstname": "Murray",
        "age": -1
      },
      {
        "id": 4,
        "name": "Wynn",
        "firstname": "Natalie",
        "age": 32
      }
    ]
  }
  